@startuml
'https://plantuml.com/sequence-diagram

'autonumber
iframe ->o iframe : searchParams:serviceReference

alt serviceReference == null
note over iframe,mpp
Get the serviceReference
through MPP's v10 API
end note
iframe -> mpp: GET workflows/configurations (v10)
mpp --> iframe : { sessionId, ... }

iframe -> mpp : GET subscriptions?searchIds={sessionId} (v10)
mpp --> iframe: { serviceReference, ... }
end
iframe -> mpp : GET subscriptions?serviceReference={serviceReference} (v11)
mpp --> iframe : { subscription }


@enduml
